{
	"info": {
		"_postman_id": "5864265e-a58e-4676-be9b-cb89d89ada84",
		"name": "Tests",
		"schema": "https://schema.getpostman.com/json/collection/v2.1.0/collection.json"
	},
	"item": [
		{
			"name": "Categories empty",
			"event": [
				{
					"listen": "test",
					"script": {
						"id": "11b8fc61-ecc5-4508-8301-f59bb729b9fe",
						"exec": [
							"pm.test(\"Status code is 200\", function () {",
							"    pm.response.to.have.status(200);",
							"});",
							"",
							"var categories = pm.response.json();",
							"pm.expect(categories.length).to.eql(0);"
						],
						"type": "text/javascript"
					}
				}
			],
			"request": {
				"method": "GET",
				"header": [
					{
						"key": "Content-Type",
						"name": "Content-Type",
						"value": "application/json",
						"type": "text"
					}
				],
				"body": {
					"mode": "raw",
					"raw": ""
				},
				"url": {
					"raw": "https://localhost:5001/api/Category",
					"protocol": "https",
					"host": [
						"localhost"
					],
					"port": "5001",
					"path": [
						"api",
						"Category"
					]
				}
			},
			"response": []
		},
		{
			"name": "Category1 and test",
			"event": [
				{
					"listen": "test",
					"script": {
						"id": "2871b61a-3b5e-4430-8553-7ec76b5cf89e",
						"exec": [
							"// Category is created",
							"",
							"pm.test(\"Status code is 201\", function () {",
							"    pm.response.to.have.status(201);",
							"});",
							"",
							"var category = pm.response.json();",
							"pm.environment.set(\"CATEGORY1_ID\", category.id);",
							"",
							"pm.test(\"Name is correct\", function () {",
							"    pm.expect(category.name).to.eql(\"Category1\");",
							"});",
							"",
							"pm.test(\"Parent category id is null\", function () {",
							"    pm.expect(category.parentCategoryId).to.eql(null);",
							"});",
							"",
							"pm.test(\"Sub categories is empty\", function () {",
							"    pm.expect(category.subCategories.length).to.eql(0);",
							"});"
						],
						"type": "text/javascript"
					}
				}
			],
			"request": {
				"method": "POST",
				"header": [
					{
						"key": "Content-Type",
						"name": "Content-Type",
						"type": "text",
						"value": "application/json"
					}
				],
				"body": {
					"mode": "raw",
					"raw": "{\r\n\t\"name\": {\r\n\t\t\"nameContent\": \"Category1\"\r\n\t},\r\n\t\"subCategories\": []\r\n}"
				},
				"url": {
					"raw": "https://localhost:5001/api/Category",
					"protocol": "https",
					"host": [
						"localhost"
					],
					"port": "5001",
					"path": [
						"api",
						"Category"
					]
				}
			},
			"response": []
		},
		{
			"name": "Category2 and test",
			"event": [
				{
					"listen": "test",
					"script": {
						"id": "2871b61a-3b5e-4430-8553-7ec76b5cf89e",
						"exec": [
							"// Category is created",
							"",
							"pm.test(\"Status code is 201\", function () {",
							"    pm.response.to.have.status(201);",
							"});",
							"",
							"var category = pm.response.json();",
							"pm.environment.set(\"CATEGORY2_ID\", category.id);",
							"",
							"pm.test(\"Name is correct\", function () {",
							"    pm.expect(category.name).to.eql(\"Category2\");",
							"});",
							"",
							"pm.test(\"Parent category id is correct\", function () {",
							"    pm.expect(category.parentCategoryId).to.eql(pm.environment.get(\"CATEGORY1_ID\"));",
							"});",
							"",
							"pm.test(\"Sub categories is empty\", function () {",
							"    pm.expect(category.subCategories.length).to.eql(0);",
							"});"
						],
						"type": "text/javascript"
					}
				}
			],
			"request": {
				"method": "POST",
				"header": [
					{
						"key": "Content-Type",
						"name": "Content-Type",
						"value": "application/json",
						"type": "text"
					}
				],
				"body": {
					"mode": "raw",
					"raw": "{\r\n\t\"name\": {\r\n\t\t\"nameContent\": \"Category2\"\r\n\t},\r\n\t\"parentCategoryId\": \"{{CATEGORY1_ID}}\",\r\n\t\"subCategories\": []\r\n}"
				},
				"url": {
					"raw": "https://localhost:5001/api/Category",
					"protocol": "https",
					"host": [
						"localhost"
					],
					"port": "5001",
					"path": [
						"api",
						"Category"
					]
				}
			},
			"response": []
		},
		{
			"name": "Category1 with Category2 as sub category",
			"event": [
				{
					"listen": "test",
					"script": {
						"id": "11b8fc61-ecc5-4508-8301-f59bb729b9fe",
						"exec": [
							"pm.test(\"Status code is 200\", function () {",
							"    pm.response.to.have.status(200);",
							"});",
							"",
							"var categories = pm.response.json();",
							"",
							"pm.test(\"Sub categories is correct\", function () {",
							"    categories.subCategories.forEach(function(subCat) {",
							"        pm.expect(subCat).to.eql(pm.environment.get(\"CATEGORY2_ID\"));",
							"    });",
							"});"
						],
						"type": "text/javascript"
					}
				}
			],
			"request": {
				"method": "GET",
				"header": [
					{
						"key": "Content-Type",
						"name": "Content-Type",
						"type": "text",
						"value": "application/json"
					}
				],
				"body": {
					"mode": "raw",
					"raw": ""
				},
				"url": {
					"raw": "https://localhost:5001/api/Category/{{CATEGORY1_ID}}",
					"protocol": "https",
					"host": [
						"localhost"
					],
					"port": "5001",
					"path": [
						"api",
						"Category",
						"{{CATEGORY1_ID}}"
					]
				}
			},
			"response": []
		},
		{
			"name": "Category4",
			"event": [
				{
					"listen": "test",
					"script": {
						"id": "2871b61a-3b5e-4430-8553-7ec76b5cf89e",
						"exec": [
							"// Category is created",
							"",
							"pm.test(\"Status code is 201\", function () {",
							"    pm.response.to.have.status(201);",
							"});",
							"",
							"var category = pm.response.json();",
							"pm.environment.set(\"CATEGORY4_ID\", category.id);"
						],
						"type": "text/javascript"
					}
				}
			],
			"request": {
				"method": "POST",
				"header": [
					{
						"key": "Content-Type",
						"name": "Content-Type",
						"type": "text",
						"value": "application/json"
					}
				],
				"body": {
					"mode": "raw",
					"raw": "{\r\n\t\"name\": {\r\n\t\t\"nameContent\": \"Category4\"\r\n\t},\r\n\t\"subCategories\": []\r\n}"
				},
				"url": {
					"raw": "https://localhost:5001/api/Category",
					"protocol": "https",
					"host": [
						"localhost"
					],
					"port": "5001",
					"path": [
						"api",
						"Category"
					]
				}
			},
			"response": []
		},
		{
			"name": "Category3",
			"event": [
				{
					"listen": "test",
					"script": {
						"id": "2871b61a-3b5e-4430-8553-7ec76b5cf89e",
						"exec": [
							"// Category is created",
							"",
							"pm.test(\"Status code is 201\", function () {",
							"    pm.response.to.have.status(201);",
							"});",
							"",
							"var category = pm.response.json();",
							"pm.environment.set(\"CATEGORY3_ID\", category.id);"
						],
						"type": "text/javascript"
					}
				}
			],
			"request": {
				"method": "POST",
				"header": [
					{
						"key": "Content-Type",
						"name": "Content-Type",
						"value": "application/json",
						"type": "text"
					}
				],
				"body": {
					"mode": "raw",
					"raw": "{\r\n\t\"name\": {\r\n\t\t\"nameContent\": \"Category3\"\r\n\t},\r\n\t\"parentCategoryId\": \"{{CATEGORY2_ID}}\",\r\n\t\"subCategories\": [{\r\n\t\t\"id\": \"{{CATEGORY4_ID}}\"\r\n\t}]\r\n}"
				},
				"url": {
					"raw": "https://localhost:5001/api/Category",
					"protocol": "https",
					"host": [
						"localhost"
					],
					"port": "5001",
					"path": [
						"api",
						"Category"
					]
				}
			},
			"response": []
		},
		{
			"name": "Category3 and test",
			"event": [
				{
					"listen": "test",
					"script": {
						"id": "2871b61a-3b5e-4430-8553-7ec76b5cf89e",
						"exec": [
							"// Category is updated",
							"",
							"pm.test(\"Status code is 201\", function () {",
							"    pm.response.to.have.status(201);",
							"});",
							"",
							"var category = pm.response.json();",
							"",
							"pm.test(\"Name is correct\", function () {",
							"    pm.expect(category.name).to.eql(\"Category5\");",
							"});",
							"",
							"pm.test(\"Parent category id is correct\", function () {",
							"    pm.expect(category.parentCategoryId).to.eql(pm.environment.get(\"CATEGORY1_ID\"));",
							"});",
							"",
							"pm.test(\"Sub categories is empty\", function () {",
							"    pm.expect(category.subCategories.length).to.eql(0);",
							"});"
						],
						"type": "text/javascript"
					}
				}
			],
			"request": {
				"method": "PUT",
				"header": [
					{
						"key": "Content-Type",
						"name": "Content-Type",
						"type": "text",
						"value": "application/json"
					}
				],
				"body": {
					"mode": "raw",
					"raw": "{\r\n\t\"name\": {\r\n\t\t\"nameContent\": \"Category5\"\r\n\t},\r\n\t\"parentCategoryId\": \"{{CATEGORY1_ID}}\",\r\n\t\"subCategories\": []\r\n}"
				},
				"url": {
					"raw": "https://localhost:5001/api/Category/{{CATEGORY3_ID}}",
					"protocol": "https",
					"host": [
						"localhost"
					],
					"port": "5001",
					"path": [
						"api",
						"Category",
						"{{CATEGORY3_ID}}"
					]
				}
			},
			"response": []
		},
		{
			"name": "Category4 not found",
			"event": [
				{
					"listen": "test",
					"script": {
						"id": "11b8fc61-ecc5-4508-8301-f59bb729b9fe",
						"exec": [
							"pm.test(\"Status code is 404\", function () {",
							"    pm.response.to.have.status(404);",
							"});"
						],
						"type": "text/javascript"
					}
				}
			],
			"request": {
				"method": "GET",
				"header": [
					{
						"key": "Content-Type",
						"name": "Content-Type",
						"type": "text",
						"value": "application/json"
					}
				],
				"body": {
					"mode": "raw",
					"raw": ""
				},
				"url": {
					"raw": "https://localhost:5001/api/Category/{{CATEGORY4_ID}}",
					"protocol": "https",
					"host": [
						"localhost"
					],
					"port": "5001",
					"path": [
						"api",
						"Category",
						"{{CATEGORY4_ID}}"
					]
				}
			},
			"response": []
		},
		{
			"name": "Products empty",
			"event": [
				{
					"listen": "test",
					"script": {
						"id": "2adda10b-e4c5-4b57-a3bd-bdac4dab636f",
						"exec": [
							"pm.test(\"Status code is 200\", function () {",
							"    pm.response.to.have.status(200);",
							"});",
							"",
							"var products = pm.response.json();",
							"pm.expect(products.length).to.eql(0);"
						],
						"type": "text/javascript"
					}
				}
			],
			"request": {
				"method": "GET",
				"header": [
					{
						"disabled": false,
						"key": "Content-Type",
						"value": "application/json"
					}
				],
				"body": {
					"mode": "raw",
					"raw": ""
				},
				"url": {
					"raw": "https://localhost:5001/api/Product",
					"protocol": "https",
					"host": [
						"localhost"
					],
					"port": "5001",
					"path": [
						"api",
						"Product"
					]
				}
			},
			"response": []
		},
		{
			"name": "Product by name",
			"event": [
				{
					"listen": "test",
					"script": {
						"id": "2adda10b-e4c5-4b57-a3bd-bdac4dab636f",
						"exec": [
							"pm.test(\"Status code is 404\", function () {",
							"    pm.response.to.have.status(404);",
							"});"
						],
						"type": "text/javascript"
					}
				}
			],
			"request": {
				"method": "GET",
				"header": [
					{
						"disabled": false,
						"key": "Content-Type",
						"value": "application/json"
					}
				],
				"body": {
					"mode": "raw",
					"raw": ""
				},
				"url": {
					"raw": "https://localhost:5001/api/Product/name=product1",
					"protocol": "https",
					"host": [
						"localhost"
					],
					"port": "5001",
					"path": [
						"api",
						"Product",
						"name=product1"
					]
				}
			},
			"response": []
		},
		{
			"name": "Product1",
			"event": [
				{
					"listen": "test",
					"script": {
						"id": "2871b61a-3b5e-4430-8553-7ec76b5cf89e",
						"exec": [
							"// Product is created",
							"",
							"pm.test(\"Status code is 201\", function () {",
							"    pm.response.to.have.status(201);",
							"});",
							"",
							"// create a variable to be used in the next GET - the product's name",
							"var product = pm.response.json();",
							"pm.environment.set(\"PRODUCT_ID\", product.id);"
						],
						"type": "text/javascript"
					}
				}
			],
			"request": {
				"method": "POST",
				"header": [
					{
						"key": "Content-Type",
						"name": "Content-Type",
						"value": "application/json",
						"type": "text"
					}
				],
				"body": {
					"mode": "raw",
					"raw": "{\r\n\t\"name\": {\r\n\t\t\"nameContent\": \"product1\"\r\n\t},\r\n\t\"category\": {\r\n\t\t\"id\": \"{{CATEGORY1_ID}}\"\r\n\t},\r\n\t\"dimensions\": {\r\n\t\t\"height\": {\r\n\t\t\t\"discrete\": true,\r\n\t\t\t\"discreteValues\": [{\r\n\t\t\t\t\"valueDouble\": 1\r\n\t\t\t}],\r\n\t\t\t\"continuousValues\": null\r\n\t\t},\r\n\t\t\"width\": {\r\n\t\t\t\"discrete\": false,\r\n\t\t\t\"discreteValues\": null,\r\n\t\t\t\"continuousValues\": [{\r\n\t\t\t\t\"valueDouble\": 10\r\n\t\t\t},{\r\n\t\t\t\t\"valueDouble\": 20\r\n\t\t\t}]\r\n\t\t},\r\n\t\t\"depth\": {\r\n\t\t\t\"discrete\": true,\r\n\t\t\t\"discreteValues\": [{\r\n\t\t\t\t\"valueDouble\": 3\r\n\t\t\t}],\r\n\t\t\t\"continuousValues\": null\r\n\t\t}\r\n\t},\r\n\t\"materials\": [{\r\n\t\t\"designation\": {\r\n\t\t\t\"nameContent\": \"material1\"\r\n\t\t},\r\n\t\t\"finishingList\": [{\r\n\t\t\t\t\"designation\": {\r\n\t\t\t\t\t\"nameContent\": \"finishing1\"\r\n\t\t\t\t}\r\n\t\t\t},\r\n\t\t\t{\r\n\t\t\t\t\"designation\": {\r\n\t\t\t\t\t\"nameContent\": \"finishing2\"\r\n\t\t\t\t}\r\n\t\t}]\r\n\t},\r\n\t{\r\n\t\t\"designation\": {\r\n\t\t\t\"nameContent\": \"material2\"\r\n\t\t},\r\n\t\t\"finishingList\": []\r\n\t}],\r\n\t\"parts\": []\r\n}"
				},
				"url": {
					"raw": "https://localhost:5001/api/Product",
					"protocol": "https",
					"host": [
						"localhost"
					],
					"port": "5001",
					"path": [
						"api",
						"Product"
					]
				}
			},
			"response": []
		},
		{
			"name": "Product1 by name successful",
			"event": [
				{
					"listen": "test",
					"script": {
						"id": "25a7dc14-0456-461e-8f80-729e28fb7ccf",
						"exec": [
							"// Product is found by name",
							"",
							"pm.test(\"Status code is 200\", function () {",
							"    pm.response.to.have.status(200);",
							"});",
							"",
							"// Create a variable to be used in the next GET - the product's id",
							"var product = pm.response.json();",
							"pm.environment.set(\"PRODUCT_ID\", product.id);",
							"",
							"// Product was created successfully",
							"pm.test(\"Name is correct\", function () {",
							"    pm.expect(product.productName).to.eql(\"product1\");",
							"});",
							"",
							"pm.test(\"Category is correct\", function () {",
							"    pm.expect(product.categoryId.name).to.eql(pm.environment.get(\"{{CATEGORY1_ID}}\"));",
							"});",
							"",
							"pm.test(\"Dimensions are correct\", function () {",
							"    ",
							"    //Heigth",
							"    pm.expect(product.dimensions.heightDTO.discreteDTO).to.eql(true);",
							"    product.dimensions.heightDTO.discreteValuesDTO.forEach(function(discreteValue) {",
							"        pm.expect(discreteValue.valueDoubleDTO).to.eql(1);",
							"    });",
							"    pm.expect(product.dimensions.heightDTO.continuousValuesDTO).to.eql(null);",
							"    ",
							"    //Width",
							"    pm.expect(product.dimensions.widthDTO.discreteDTO).to.eql(false);",
							"    pm.expect(product.dimensions.widthDTO.discreteValuesDTO).to.eql(null);",
							"    var values = [10, 20];",
							"    var i = 0;",
							"    product.dimensions.widthDTO.continuousValuesDTO.forEach(function(continuousValue) {",
							"        pm.expect(continuousValue.valueDoubleDTO).to.eql(values[i]);",
							"        i++;",
							"    });",
							"    ",
							"    //Depth",
							"    pm.expect(product.dimensions.depthDTO.discreteDTO).to.eql(true);",
							"    product.dimensions.depthDTO.discreteValuesDTO.forEach(function(discreteValue) {",
							"        pm.expect(discreteValue.valueDoubleDTO).to.eql(3);",
							"    });",
							"    pm.expect(product.dimensions.depthDTO.continuousValuesDTO).to.eql(null);",
							"    ",
							"});",
							"",
							"pm.test(\"Materials are correct\", function () {",
							"    var materialDesignation = [\"material1\", \"material2\"];",
							"    var i = 0;",
							"    product.materials.forEach(function(material) {",
							"        ",
							"        //designations",
							"        pm.expect(material.designation).to.eql(materialDesignation[i]);",
							"        ",
							"        //finishing lists",
							"        if (i === 0) {",
							"            var designations = [\"finishing1\", \"finishing2\"];",
							"            var j = 0;",
							"            material.finishingList.forEach(function(finishing) {",
							"                pm.expect(finishing.designation).to.eql(designations[j]);",
							"                j++;",
							"            });",
							"        } else {",
							"            pm.expect(material.finishingList.length).to.eql(0);",
							"        }",
							"        ",
							"        ",
							"        i++;",
							"    });",
							"});",
							"",
							"pm.test(\"Parts are correct\", function () {",
							"    pm.expect(product.parts.length).to.eql(0);",
							"});",
							"",
							"",
							""
						],
						"type": "text/javascript"
					}
				}
			],
			"request": {
				"method": "GET",
				"header": [
					{
						"disabled": false,
						"key": "Content-Type",
						"value": "application/json"
					}
				],
				"body": {
					"mode": "raw",
					"raw": ""
				},
				"url": {
					"raw": "https://localhost:5001/api/Product/name=product1",
					"protocol": "https",
					"host": [
						"localhost"
					],
					"port": "5001",
					"path": [
						"api",
						"Product",
						"name=product1"
					]
				}
			},
			"response": []
		},
		{
			"name": "Product1 by id",
			"event": [
				{
					"listen": "test",
					"script": {
						"id": "a23314b4-5652-4644-a92e-bdb66a87dd1d",
						"exec": [
							"// Product is found by ID",
							"",
							"pm.test(\"Status code is 200\", function () {",
							"    pm.response.to.have.status(200);",
							"});",
							"",
							"var product = pm.response.json();",
							"",
							"// Product was created successfully",
							"pm.test(\"Name is correct\", function () {",
							"    pm.expect(product.productName).to.eql(\"product1\");",
							"});",
							"",
							"pm.test(\"Category is correct\", function () {",
							"    pm.expect(product.categoryId.name).to.eql(pm.environment.get(\"{{CATEGORY1_ID}}\"));",
							"});",
							"",
							"pm.test(\"Dimensions are correct\", function () {",
							"    ",
							"    //Heigth",
							"    pm.expect(product.dimensions.heightDTO.discreteDTO).to.eql(true);",
							"    product.dimensions.heightDTO.discreteValuesDTO.forEach(function(discreteValue) {",
							"        pm.expect(discreteValue.valueDoubleDTO).to.eql(1);",
							"    });",
							"    pm.expect(product.dimensions.heightDTO.continuousValuesDTO).to.eql(null);",
							"    ",
							"    //Width",
							"    pm.expect(product.dimensions.widthDTO.discreteDTO).to.eql(false);",
							"    pm.expect(product.dimensions.widthDTO.discreteValuesDTO).to.eql(null);",
							"    var values = [10, 20];",
							"    var i = 0;",
							"    product.dimensions.widthDTO.continuousValuesDTO.forEach(function(continuousValue) {",
							"        pm.expect(continuousValue.valueDoubleDTO).to.eql(values[i]);",
							"        i++;",
							"    });",
							"    ",
							"    //Depth",
							"    pm.expect(product.dimensions.depthDTO.discreteDTO).to.eql(true);",
							"    product.dimensions.depthDTO.discreteValuesDTO.forEach(function(discreteValue) {",
							"        pm.expect(discreteValue.valueDoubleDTO).to.eql(3);",
							"    });",
							"    pm.expect(product.dimensions.depthDTO.continuousValuesDTO).to.eql(null);",
							"    ",
							"});",
							"",
							"pm.test(\"Materials are correct\", function () {",
							"    var materialDesignation = [\"material1\", \"material2\"];",
							"    var i = 0;",
							"    product.materials.forEach(function(material) {",
							"        ",
							"        //designations",
							"        pm.expect(material.designation).to.eql(materialDesignation[i]);",
							"        ",
							"        //finishing lists",
							"        if (i === 0) {",
							"            var designations = [\"finishing1\", \"finishing2\"];",
							"            var j = 0;",
							"            material.finishingList.forEach(function(finishing) {",
							"                pm.expect(finishing.designation).to.eql(designations[j]);",
							"                j++;",
							"            });",
							"        } else {",
							"            pm.expect(material.finishingList.length).to.eql(0);",
							"        }",
							"        ",
							"        ",
							"        i++;",
							"    });",
							"});",
							"",
							"pm.test(\"Parts are correct\", function () {",
							"    pm.expect(product.parts.length).to.eql(0);",
							"});"
						],
						"type": "text/javascript"
					}
				},
				{
					"listen": "prerequest",
					"script": {
						"id": "0f669465-bc48-4ed0-863b-392f992a5f7c",
						"exec": [
							""
						],
						"type": "text/javascript"
					}
				}
			],
			"request": {
				"method": "GET",
				"header": [],
				"body": {
					"mode": "raw",
					"raw": ""
				},
				"url": {
					"raw": "https://localhost:5001/api/Product/{{PRODUCT_ID}}",
					"protocol": "https",
					"host": [
						"localhost"
					],
					"port": "5001",
					"path": [
						"api",
						"Product",
						"{{PRODUCT_ID}}"
					]
				}
			},
			"response": []
		},
		{
			"name": "Product1 and test",
			"event": [
				{
					"listen": "prerequest",
					"script": {
						"id": "84f90d4f-2ec4-4490-845d-a88fb621c1e6",
						"exec": [
							""
						],
						"type": "text/javascript"
					}
				},
				{
					"listen": "test",
					"script": {
						"id": "23302050-463d-455b-89b7-7d1575335f12",
						"exec": [
							"// Product is updated",
							"",
							"pm.test(\"Status code is 201\", function () {",
							"    pm.response.to.have.status(201);",
							"});",
							"",
							"var product = pm.response.json();",
							"",
							"// Product was updated successfully",
							"pm.test(\"Name is correct\", function () {",
							"    pm.expect(product.productName).to.eql(\"product2\");",
							"});",
							"",
							"pm.test(\"Category is correct\", function () {",
							"    pm.expect(product.categoryId.name).to.eql(pm.environment.get(\"{{CATEGORY2_ID}}\"));",
							"});",
							"",
							"pm.test(\"Dimensions are correct\", function () {",
							"    ",
							"    //Heigth",
							"    pm.expect(product.dimensions.heightDTO.discreteDTO).to.eql(true);",
							"    product.dimensions.heightDTO.discreteValuesDTO.forEach(function(discreteValue) {",
							"        pm.expect(discreteValue.valueDoubleDTO).to.eql(5);",
							"    });",
							"    pm.expect(product.dimensions.heightDTO.continuousValuesDTO).to.eql(null);",
							"    ",
							"    //Width",
							"    pm.expect(product.dimensions.widthDTO.discreteDTO).to.eql(true);",
							"    product.dimensions.widthDTO.discreteValuesDTO.forEach(function(discreteValue) {",
							"        pm.expect(discreteValue.valueDoubleDTO).to.eql(2);",
							"    });",
							"    pm.expect(product.dimensions.widthDTO.continuousValuesDTO).to.eql(null);",
							"    ",
							"    //Depth",
							"    pm.expect(product.dimensions.depthDTO.discreteDTO).to.eql(false);",
							"    pm.expect(product.dimensions.depthDTO.discreteValuesDTO).to.eql(null);",
							"    var values = [20, 40];",
							"    var i = 0;",
							"    product.dimensions.depthDTO.continuousValuesDTO.forEach(function(continuousValue) {",
							"        pm.expect(continuousValue.valueDoubleDTO).to.eql(values[i]);",
							"        i++;",
							"    });",
							"    ",
							"});",
							"",
							"pm.test(\"Materials are correct\", function () {",
							"    product.materials.forEach(function(material) {",
							"        pm.expect(material.designation).to.eql(\"material1\");",
							"        material.finishingList.forEach(function(finishing) {",
							"            pm.expect(finishing.designation).to.eql(\"finishing2\");",
							"        });",
							"    });",
							"});",
							"",
							"pm.test(\"Parts are correct\", function () {",
							"    pm.expect(product.parts.length).to.eql(0);",
							"});"
						],
						"type": "text/javascript"
					}
				}
			],
			"request": {
				"method": "PUT",
				"header": [
					{
						"key": "Content-Type",
						"name": "Content-Type",
						"type": "text",
						"value": "application/json"
					}
				],
				"body": {
					"mode": "raw",
					"raw": "{\r\n\t\"name\": {\r\n\t\t\"nameContent\": \"product2\"\r\n\t},\r\n\t\"category\": {\r\n\t\t\"id\": \"{{CATEGORY2_ID}}\"\r\n\t},\r\n\t\"dimensions\": {\r\n\t\t\"height\": {\r\n\t\t\t\"discrete\": true,\r\n\t\t\t\"discreteValues\": [{\r\n\t\t\t\t\"valueDouble\": 5\r\n\t\t\t}],\r\n\t\t\t\"continuousValues\": null\r\n\t\t},\r\n\t\t\"width\": {\r\n\t\t\t\"discrete\": true,\r\n\t\t\t\"discreteValues\": [{\r\n\t\t\t\t\"valueDouble\": 2\r\n\t\t\t}],\r\n\t\t\t\"continuousValues\": null\r\n\t\t},\r\n\t\t\"depth\": {\r\n\t\t\t\"discrete\": false,\r\n\t\t\t\"discreteValues\": null,\r\n\t\t\t\"continuousValues\": [{\r\n\t\t\t\t\"valueDouble\": 20\r\n\t\t\t}, {\r\n\t\t\t\t\"valueDouble\": 40\r\n\t\t\t}]\r\n\t\t}\r\n\t},\r\n\t\"materials\": [{\r\n\t\t\"designation\": {\r\n\t\t\t\"nameContent\": \"material1\"\r\n\t\t},\r\n\t\t\"finishingList\": [{\r\n\t\t\t\t\"designation\": {\r\n\t\t\t\t\t\"nameContent\": \"finishing2\"\r\n\t\t\t\t}\r\n\t\t}]\r\n\t}],\r\n\t\"parts\": []\r\n}"
				},
				"url": {
					"raw": "https://localhost:5001/api/Product/{{PRODUCT_ID}}",
					"protocol": "https",
					"host": [
						"localhost"
					],
					"port": "5001",
					"path": [
						"api",
						"Product",
						"{{PRODUCT_ID}}"
					]
				}
			},
			"response": []
		},
		{
			"name": "Product1",
			"event": [
				{
					"listen": "test",
					"script": {
						"id": "c9dd18b5-cb5a-47de-93be-5987db688b66",
						"exec": [
							"// Product is deleted",
							"",
							"pm.test(\"Status code is 200\", function () {",
							"    pm.response.to.have.status(200);",
							"});"
						],
						"type": "text/javascript"
					}
				}
			],
			"request": {
				"method": "DELETE",
				"header": [],
				"body": {
					"mode": "raw",
					"raw": ""
				},
				"url": {
					"raw": "https://localhost:5001/api/Product/{{PRODUCT_ID}}",
					"protocol": "https",
					"host": [
						"localhost"
					],
					"port": "5001",
					"path": [
						"api",
						"Product",
						"{{PRODUCT_ID}}"
					]
				}
			},
			"response": []
		},
		{
			"name": "Product1 by id unsuccessful",
			"event": [
				{
					"listen": "test",
					"script": {
						"id": "a23314b4-5652-4644-a92e-bdb66a87dd1d",
						"exec": [
							"// Product is not found",
							"",
							"pm.test(\"Status code is 404\", function () {",
							"    pm.response.to.have.status(404);",
							"});"
						],
						"type": "text/javascript"
					}
				},
				{
					"listen": "prerequest",
					"script": {
						"id": "0f669465-bc48-4ed0-863b-392f992a5f7c",
						"exec": [
							""
						],
						"type": "text/javascript"
					}
				}
			],
			"request": {
				"method": "GET",
				"header": [],
				"body": {
					"mode": "raw",
					"raw": ""
				},
				"url": {
					"raw": "https://localhost:5001/api/Product/{{PRODUCT_ID}}",
					"protocol": "https",
					"host": [
						"localhost"
					],
					"port": "5001",
					"path": [
						"api",
						"Product",
						"{{PRODUCT_ID}}"
					]
				}
			},
			"response": []
		},
		{
			"name": "Category1, 2 and 3",
			"event": [
				{
					"listen": "test",
					"script": {
						"id": "a6a80089-5fa2-43c0-9b7e-099d5a0bae3f",
						"exec": [
							"pm.test(\"Status code is 200\", function () {",
							"    pm.response.to.have.status(200);",
							"});"
						],
						"type": "text/javascript"
					}
				}
			],
			"request": {
				"method": "DELETE",
				"header": [],
				"body": {
					"mode": "raw",
					"raw": ""
				},
				"url": {
					"raw": "https://localhost:5001/api/Category/{{CATEGORY1_ID}}",
					"protocol": "https",
					"host": [
						"localhost"
					],
					"port": "5001",
					"path": [
						"api",
						"Category",
						"{{CATEGORY1_ID}}"
					]
				}
			},
			"response": []
		}
	]
}